1526599577
a:2:{s:7:"content";s:488:"


<section id="modular-hero" class="section hero hero-fullscreen " style="background-image: url(/user/pages/01.home/_hero/permit-office.jpg);">
    <div class="image-overlay"></div>
    <section class="container grid-lg" style="text-align: center">
        <h1 class="text-white text-shadow">STOP WASTING TIME AT THE PERMIT OFFICE</h1>
<p><a href="#quote" class="btn btn-lg btn-error">GET A QUOTE</a></p>
    </section>
    <i id="to-start" class="pulse fa fa-angle-down"></i>
</section>";s:12:"content_meta";N;}